{
  "author": "Rodney Brown",
  "dependencies": [mosen-cups https://github.com/mosen/puppet-cups.git],
  "license": "",
  "name": "ILS Printers",
  "operatingsystem_support": [CentOS/Redhat 6,x],
  "project_page": "",
  "requirements": [],
  "source": "",
  "summary": "",
  "tags": [],
  "version": "0.1.0"
}